Apr 03, 2024 9:43:04 AM services.SendingConfirmationServiceImpl sendForConfirmationToOrganization
INFO: Send for confirmation to Org1 finished with response true
Apr 03, 2024 9:43:04 AM services.SendingConfirmationServiceImpl sendForConfirmationToOrganization
INFO: Send for confirmation to Org2 finished with response true
Apr 03, 2024 9:43:04 AM services.SendingConfirmationServiceImpl sendForConfirmationToOrganization
INFO: Send for confirmation to Org3 finished with response true
Apr 03, 2024 9:43:04 AM services.SendingConfirmationServiceImpl sendForConfirmationToOrganization
INFO: Send for confirmation to Org4 finished with response false
Apr 03, 2024 9:43:04 AM services.SendingConfirmationServiceImpl sendForConfirmationToOrganization
INFO: Consensus is reached with 4 messages
